[
  {
    "pk": 1,
    "model": "myapp.person",
    "fields": {
      "first_name": "John",
      "last_name": "Lennon"
    }
  },
  {
    "pk": 2,
    "model": "myapp.person",
    "fields": {
      "first_name": "Paul",
      "last_name": "McCartney"
    }
  }
]
